Erowid Reports • tmasc
…
 About the Experience Vaults

“The Erowid Experience Vaults are an attempt to catalog the wide variety of experiences people have with psychoactive plants and chemicals as well as experiences with endogenous (non-drug) mystical experiences, drug testing, police interactions, deep experiences of connection to music, etc.” (Erowid Experience Vault)

 tmasc::erowid_reports

The erowid_reports data set in tmasc contains written reports of some 24 thousand of these experiences, in a tidy data_frame ready for text mining, visual, and statistical analyses in R (or other software.)

erowid_reports

## # A tibble: 24,788 × 16
##       id                                        title        author
##    <int>                                        <chr>         <chr>
## 1      1                       An Unforgettable Ride!  Johnny Blaze
## 2      2            A Trip to Remember....If I Could!         SpEcK
## 3      3                                  Lost for 20        e4me&u
## 4      4                          Spectrum of Effects      Elfstone
## 5      5                                   2CT Heaven           God
## 6      6                       Blooming on Fry Street Great Ludwigo
## 7      7 Ego Death, Infinite Deja-Vu, Scared Shitless         Stash
## 8      8               Mother Nature and the Mountain    e is4 Pete
## 9      9    The night of my life, how i remembered it       Stephen
## 10    10                                   Ode to Joy           Bry
## # ... with 24,778 more rows, and 13 more variables: gender <chr>,
## #   age <chr>, kg <dbl>, year <int>, published <date>, rating <chr>,
## #   url <chr>, citation <chr>, views <int>, substance <chr>, text <chr>,
## #   erowid_warning <lgl>, dosechart <list>
…
